module gitlab.com/phil9909/stromgodacht

go 1.22.2

require github.com/onsi/gomega v1.33.1

require (
	github.com/google/go-cmp v0.6.0 // indirect
	golang.org/x/net v0.24.0 // indirect
	golang.org/x/text v0.14.0 // indirect
	google.golang.org/protobuf v1.33.0 // indirect
	gopkg.in/yaml.v3 v3.0.1 // indirect
)
